<?xml version='1.0' encoding='UTF-8' ?>
<svg xmlns='http://www.w3.org/2000/svg' xmlns:xlink='http://www.w3.org/1999/xlink' class='svglite' width='432.00pt' height='288.00pt' viewBox='0 0 432.00 288.00'>
<defs>
  <style type='text/css'><![CDATA[
    .svglite line, .svglite polyline, .svglite polygon, .svglite path, .svglite rect, .svglite circle {
      fill: none;
      stroke: #000000;
      stroke-linecap: round;
      stroke-linejoin: round;
      stroke-miterlimit: 10.00;
    }
    .svglite text {
      white-space: pre;
    }
  ]]></style>
</defs>
<rect width='100%' height='100%' style='stroke: none; fill: #FFFFFF;'/>
<defs>
  <clipPath id='cpMC4wMHw0MzIuMDB8MC4wMHwyODguMDA='>
    <rect x='0.00' y='0.00' width='432.00' height='288.00' />
  </clipPath>
</defs>
<g clip-path='url(#cpMC4wMHw0MzIuMDB8MC4wMHwyODguMDA=)'>
<rect x='0.00' y='0.00' width='432.00' height='288.00' style='stroke-width: 1.07; stroke: #FFFFFF; fill: #FFFFFF;' />
</g>
<defs>
  <clipPath id='cpMjQuMzl8MzYxLjMwfDUuNDh8MjY5LjM1'>
    <rect x='24.39' y='5.48' width='336.91' height='263.87' />
  </clipPath>
</defs>
<g clip-path='url(#cpMjQuMzl8MzYxLjMwfDUuNDh8MjY5LjM1)'>
<rect x='24.39' y='5.48' width='336.91' height='263.87' style='stroke-width: 1.07; stroke: none; fill: #FFFFFF;' />
<polygon points='83.46,117.17 83.46,253.60 83.46,253.66 83.46,253.78 83.44,253.90 83.43,254.02 83.41,254.13 83.38,254.25 83.35,254.37 83.31,254.48 83.27,254.60 83.22,254.71 83.16,254.82 83.11,254.93 83.04,255.04 82.97,255.15 82.90,255.26 82.82,255.37 82.74,255.47 82.65,255.57 82.55,255.67 82.46,255.77 82.36,255.86 82.25,255.96 82.14,256.05 82.02,256.14 81.91,256.22 81.78,256.31 81.66,256.39 81.53,256.46 81.39,256.54 81.26,256.61 81.12,256.68 80.97,256.75 80.83,256.81 80.68,256.87 80.53,256.92 80.37,256.98 80.21,257.03 80.06,257.07 79.89,257.12 79.73,257.16 79.57,257.19 79.40,257.22 79.23,257.25 79.06,257.28 78.89,257.30 78.72,257.32 78.55,257.33 78.38,257.34 78.21,257.35 78.04,257.35 45.18,257.35 77.99,257.35 45.05,257.35 44.87,257.35 44.70,257.34 44.53,257.32 44.36,257.31 44.19,257.29 44.02,257.27 43.85,257.24 43.68,257.21 43.52,257.17 43.36,257.14 43.19,257.10 43.03,257.05 42.88,257.00 42.72,256.95 42.57,256.90 42.42,256.84 42.27,256.78 42.12,256.71 41.98,256.65 41.84,256.58 41.71,256.50 41.58,256.43 41.45,256.35 41.32,256.26 41.20,256.18 41.09,256.09 40.97,256.00 40.87,255.91 40.76,255.82 40.66,255.72 40.57,255.62 40.48,255.52 40.39,255.42 40.31,255.31 40.23,255.21 40.16,255.10 40.10,254.99 40.03,254.88 39.98,254.77 39.93,254.65 39.88,254.54 39.84,254.42 39.81,254.31 39.78,254.19 39.75,254.08 39.73,253.96 39.72,253.84 39.71,253.72 39.71,253.60 39.71,253.60 39.71,117.17 39.71,117.17 39.71,117.05 39.72,116.94 39.73,116.82 39.75,116.70 39.78,116.58 39.81,116.47 39.84,116.35 39.88,116.24 39.93,116.12 39.98,116.01 40.03,115.90 40.10,115.79 40.16,115.68 40.23,115.57 40.31,115.46 40.39,115.36 40.48,115.26 40.57,115.16 40.66,115.06 40.76,114.96 40.87,114.87 40.97,114.77 41.09,114.68 41.20,114.60 41.32,114.51 41.45,114.43 41.58,114.35 41.71,114.27 41.84,114.20 41.98,114.13 42.12,114.06 42.27,114.00 42.42,113.94 42.57,113.88 42.72,113.82 42.88,113.77 43.03,113.72 43.19,113.68 43.36,113.64 43.52,113.60 43.68,113.57 43.85,113.54 44.02,113.51 44.19,113.49 44.36,113.47 44.53,113.45 44.70,113.44 44.87,113.43 45.05,113.43 45.18,113.42 77.99,113.42 78.04,113.42 78.21,113.43 78.38,113.43 78.55,113.44 78.72,113.46 78.89,113.48 79.06,113.50 79.23,113.52 79.40,113.55 79.57,113.58 79.73,113.62 79.89,113.66 80.06,113.70 80.21,113.75 80.37,113.80 80.53,113.85 80.68,113.91 80.83,113.97 80.97,114.03 81.12,114.10 81.26,114.16 81.39,114.24 81.53,114.31 81.66,114.39 81.78,114.47 81.91,114.55 82.02,114.64 82.14,114.73 82.25,114.82 82.36,114.91 82.46,115.01 82.55,115.11 82.65,115.21 82.74,115.31 82.82,115.41 82.90,115.52 82.97,115.62 83.04,115.73 83.11,115.84 83.16,115.95 83.22,116.07 83.27,116.18 83.31,116.29 83.35,116.41 83.38,116.52 83.41,116.64 83.43,116.76 83.44,116.88 83.46,117.00 83.46,117.11 ' style='stroke-width: 1.07; stroke: #BEBEBE; stroke-linecap: butt; fill: #BEBEBE;' />
<polygon points='170.97,69.20 170.97,253.60 170.97,253.66 170.96,253.78 170.95,253.90 170.94,254.02 170.92,254.13 170.89,254.25 170.86,254.37 170.82,254.48 170.77,254.60 170.73,254.71 170.67,254.82 170.61,254.93 170.55,255.04 170.48,255.15 170.41,255.26 170.33,255.37 170.24,255.47 170.16,255.57 170.06,255.67 169.97,255.77 169.86,255.86 169.76,255.96 169.65,256.05 169.53,256.14 169.41,256.22 169.29,256.31 169.17,256.39 169.03,256.46 168.90,256.54 168.76,256.61 168.62,256.68 168.48,256.75 168.33,256.81 168.19,256.87 168.03,256.92 167.88,256.98 167.72,257.03 167.56,257.07 167.40,257.12 167.24,257.16 167.08,257.19 166.91,257.22 166.74,257.25 166.57,257.28 166.40,257.30 166.23,257.32 166.06,257.33 165.89,257.34 165.72,257.35 165.54,257.35 132.69,257.35 165.50,257.35 132.56,257.35 132.38,257.35 132.21,257.34 132.04,257.32 131.87,257.31 131.70,257.29 131.53,257.27 131.36,257.24 131.19,257.21 131.03,257.17 130.86,257.14 130.70,257.10 130.54,257.05 130.38,257.00 130.23,256.95 130.08,256.90 129.93,256.84 129.78,256.78 129.63,256.71 129.49,256.65 129.35,256.58 129.22,256.50 129.09,256.43 128.96,256.35 128.83,256.26 128.71,256.18 128.60,256.09 128.48,256.00 128.37,255.91 128.27,255.82 128.17,255.72 128.08,255.62 127.99,255.52 127.90,255.42 127.82,255.31 127.74,255.21 127.67,255.10 127.60,254.99 127.54,254.88 127.49,254.77 127.44,254.65 127.39,254.54 127.35,254.42 127.31,254.31 127.28,254.19 127.26,254.08 127.24,253.96 127.23,253.84 127.22,253.72 127.22,253.60 127.22,253.60 127.22,69.20 127.22,69.20 127.22,69.08 127.23,68.96 127.24,68.84 127.26,68.72 127.28,68.61 127.31,68.49 127.35,68.38 127.39,68.26 127.44,68.15 127.49,68.03 127.54,67.92 127.60,67.81 127.67,67.70 127.74,67.59 127.82,67.49 127.90,67.38 127.99,67.28 128.08,67.18 128.17,67.08 128.27,66.98 128.37,66.89 128.48,66.80 128.60,66.71 128.71,66.62 128.83,66.54 128.96,66.45 129.09,66.37 129.22,66.30 129.35,66.22 129.49,66.15 129.63,66.09 129.78,66.02 129.93,65.96 130.08,65.90 130.23,65.85 130.38,65.80 130.54,65.75 130.70,65.70 130.86,65.66 131.03,65.63 131.19,65.59 131.36,65.56 131.53,65.53 131.70,65.51 131.87,65.49 132.04,65.48 132.21,65.46 132.38,65.45 132.56,65.45 132.69,65.45 165.50,65.45 165.54,65.45 165.72,65.45 165.89,65.46 166.06,65.47 166.23,65.48 166.40,65.50 166.57,65.52 166.74,65.55 166.91,65.58 167.08,65.61 167.24,65.64 167.40,65.68 167.56,65.73 167.72,65.77 167.88,65.82 168.03,65.88 168.19,65.93 168.33,65.99 168.48,66.05 168.62,66.12 168.76,66.19 168.90,66.26 169.03,66.34 169.17,66.41 169.29,66.49 169.41,66.58 169.53,66.66 169.65,66.75 169.76,66.84 169.86,66.94 169.97,67.03 170.06,67.13 170.16,67.23 170.24,67.33 170.33,67.44 170.41,67.54 170.48,67.65 170.55,67.76 170.61,67.87 170.67,67.98 170.73,68.09 170.77,68.20 170.82,68.32 170.86,68.43 170.89,68.55 170.92,68.67 170.94,68.78 170.95,68.90 170.96,69.02 170.97,69.14 ' style='stroke-width: 1.07; stroke: #BEBEBE; stroke-linecap: butt; fill: #BEBEBE;' />
<polygon points='258.48,165.15 258.48,253.60 258.48,253.66 258.47,253.78 258.46,253.90 258.45,254.02 258.42,254.13 258.40,254.25 258.36,254.37 258.33,254.48 258.28,254.60 258.23,254.71 258.18,254.82 258.12,254.93 258.06,255.04 257.99,255.15 257.92,255.26 257.84,255.37 257.75,255.47 257.67,255.57 257.57,255.67 257.47,255.77 257.37,255.86 257.27,255.96 257.16,256.05 257.04,256.14 256.92,256.22 256.80,256.31 256.67,256.39 256.54,256.46 256.41,256.54 256.27,256.61 256.13,256.68 255.99,256.75 255.84,256.81 255.69,256.87 255.54,256.92 255.39,256.98 255.23,257.03 255.07,257.07 254.91,257.12 254.75,257.16 254.58,257.19 254.42,257.22 254.25,257.25 254.08,257.28 253.91,257.30 253.74,257.32 253.57,257.33 253.40,257.34 253.23,257.35 253.05,257.35 220.19,257.35 253.01,257.35 220.06,257.35 219.89,257.35 219.72,257.34 219.55,257.32 219.38,257.31 219.21,257.29 219.04,257.27 218.87,257.24 218.70,257.21 218.54,257.17 218.37,257.14 218.21,257.10 218.05,257.05 217.89,257.00 217.74,256.95 217.58,256.90 217.43,256.84 217.29,256.78 217.14,256.71 217.00,256.65 216.86,256.58 216.73,256.50 216.59,256.43 216.47,256.35 216.34,256.26 216.22,256.18 216.10,256.09 215.99,256.00 215.88,255.91 215.78,255.82 215.68,255.72 215.58,255.62 215.49,255.52 215.41,255.42 215.33,255.31 215.25,255.21 215.18,255.10 215.11,254.99 215.05,254.88 215.00,254.77 214.94,254.65 214.90,254.54 214.86,254.42 214.82,254.31 214.79,254.19 214.77,254.08 214.75,253.96 214.74,253.84 214.73,253.72 214.72,253.60 214.72,253.60 214.72,165.15 214.72,165.15 214.73,165.03 214.74,164.91 214.75,164.79 214.77,164.68 214.79,164.56 214.82,164.44 214.86,164.33 214.90,164.21 214.94,164.10 215.00,163.98 215.05,163.87 215.11,163.76 215.18,163.65 215.25,163.54 215.33,163.44 215.41,163.33 215.49,163.23 215.58,163.13 215.68,163.03 215.78,162.94 215.88,162.84 215.99,162.75 216.10,162.66 216.22,162.57 216.34,162.49 216.47,162.41 216.59,162.33 216.73,162.25 216.86,162.18 217.00,162.11 217.14,162.04 217.29,161.97 217.43,161.91 217.58,161.85 217.74,161.80 217.89,161.75 218.05,161.70 218.21,161.66 218.37,161.61 218.54,161.58 218.70,161.54 218.87,161.51 219.04,161.48 219.21,161.46 219.38,161.44 219.55,161.43 219.72,161.41 219.89,161.41 220.06,161.40 220.19,161.40 253.01,161.40 253.05,161.40 253.23,161.40 253.40,161.41 253.57,161.42 253.74,161.43 253.91,161.45 254.08,161.47 254.25,161.50 254.42,161.53 254.58,161.56 254.75,161.59 254.91,161.63 255.07,161.68 255.23,161.72 255.39,161.77 255.54,161.83 255.69,161.88 255.84,161.94 255.99,162.01 256.13,162.07 256.27,162.14 256.41,162.21 256.54,162.29 256.67,162.37 256.80,162.45 256.92,162.53 257.04,162.62 257.16,162.70 257.27,162.79 257.37,162.89 257.47,162.98 257.57,163.08 257.67,163.18 257.75,163.28 257.84,163.39 257.92,163.49 257.99,163.60 258.06,163.71 258.12,163.82 258.18,163.93 258.23,164.04 258.28,164.15 258.33,164.27 258.36,164.38 258.40,164.50 258.42,164.62 258.45,164.73 258.46,164.85 258.47,164.97 258.48,165.09 ' style='stroke-width: 1.07; stroke: #BEBEBE; stroke-linecap: butt; fill: #BEBEBE;' />
<polygon points='345.99,21.22 345.99,253.60 345.99,253.66 345.98,253.78 345.97,253.90 345.95,254.02 345.93,254.13 345.91,254.25 345.87,254.37 345.84,254.48 345.79,254.60 345.74,254.71 345.69,254.82 345.63,254.93 345.57,255.04 345.50,255.15 345.42,255.26 345.35,255.37 345.26,255.47 345.17,255.57 345.08,255.67 344.98,255.77 344.88,255.86 344.78,255.96 344.66,256.05 344.55,256.14 344.43,256.22 344.31,256.31 344.18,256.39 344.05,256.46 343.92,256.54 343.78,256.61 343.64,256.68 343.50,256.75 343.35,256.81 343.20,256.87 343.05,256.92 342.90,256.98 342.74,257.03 342.58,257.07 342.42,257.12 342.26,257.16 342.09,257.19 341.93,257.22 341.76,257.25 341.59,257.28 341.42,257.30 341.25,257.32 341.08,257.33 340.91,257.34 340.73,257.35 340.56,257.35 307.70,257.35 340.52,257.35 307.57,257.35 307.40,257.35 307.23,257.34 307.06,257.32 306.89,257.31 306.72,257.29 306.55,257.27 306.38,257.24 306.21,257.21 306.05,257.17 305.88,257.14 305.72,257.10 305.56,257.05 305.40,257.00 305.25,256.95 305.09,256.90 304.94,256.84 304.80,256.78 304.65,256.71 304.51,256.65 304.37,256.58 304.24,256.50 304.10,256.43 303.98,256.35 303.85,256.26 303.73,256.18 303.61,256.09 303.50,256.00 303.39,255.91 303.29,255.82 303.19,255.72 303.09,255.62 303.00,255.52 302.92,255.42 302.84,255.31 302.76,255.21 302.69,255.10 302.62,254.99 302.56,254.88 302.50,254.77 302.45,254.65 302.41,254.54 302.37,254.42 302.33,254.31 302.30,254.19 302.28,254.08 302.26,253.96 302.24,253.84 302.24,253.72 302.23,253.60 302.23,253.60 302.23,21.22 302.23,21.22 302.24,21.10 302.24,20.98 302.26,20.87 302.28,20.75 302.30,20.63 302.33,20.52 302.37,20.40 302.41,20.28 302.45,20.17 302.50,20.06 302.56,19.95 302.62,19.84 302.69,19.73 302.76,19.62 302.84,19.51 302.92,19.41 303.00,19.30 303.09,19.20 303.19,19.11 303.29,19.01 303.39,18.91 303.50,18.82 303.61,18.73 303.73,18.65 303.85,18.56 303.98,18.48 304.10,18.40 304.24,18.32 304.37,18.25 304.51,18.18 304.65,18.11 304.80,18.05 304.94,17.99 305.09,17.93 305.25,17.87 305.40,17.82 305.56,17.77 305.72,17.73 305.88,17.69 306.05,17.65 306.21,17.62 306.38,17.58 306.55,17.56 306.72,17.53 306.89,17.52 307.06,17.50 307.23,17.49 307.40,17.48 307.57,17.47 307.70,17.47 340.52,17.47 340.56,17.47 340.73,17.48 340.91,17.48 341.08,17.49 341.25,17.51 341.42,17.52 341.59,17.55 341.76,17.57 341.93,17.60 342.09,17.63 342.26,17.67 342.42,17.71 342.58,17.75 342.74,17.80 342.90,17.85 343.05,17.90 343.20,17.96 343.35,18.02 343.50,18.08 343.64,18.14 343.78,18.21 343.92,18.29 344.05,18.36 344.18,18.44 344.31,18.52 344.43,18.60 344.55,18.69 344.66,18.78 344.78,18.87 344.88,18.96 344.98,19.06 345.08,19.15 345.17,19.25 345.26,19.36 345.35,19.46 345.42,19.56 345.50,19.67 345.57,19.78 345.63,19.89 345.69,20.00 345.74,20.11 345.79,20.23 345.84,20.34 345.87,20.46 345.91,20.57 345.93,20.69 345.95,20.81 345.97,20.93 345.98,21.04 345.99,21.16 ' style='stroke-width: 1.07; stroke: #BEBEBE; stroke-linecap: butt; fill: #BEBEBE;' />
<polygon points='258.48,189.14 258.48,205.63 258.48,205.69 258.47,205.80 258.46,205.92 258.45,206.04 258.42,206.16 258.40,206.28 258.36,206.39 258.33,206.51 258.28,206.62 258.23,206.73 258.18,206.85 258.12,206.96 258.06,207.07 257.99,207.18 257.92,207.28 257.84,207.39 257.75,207.49 257.67,207.59 257.57,207.69 257.47,207.79 257.37,207.89 257.27,207.98 257.16,208.07 257.04,208.16 256.92,208.25 256.80,208.33 256.67,208.41 256.54,208.49 256.41,208.56 256.27,208.64 256.13,208.70 255.99,208.77 255.84,208.83 255.69,208.89 255.54,208.95 255.39,209.00 255.23,209.05 255.07,209.10 254.91,209.14 254.75,209.18 254.58,209.22 254.42,209.25 254.25,209.28 254.08,209.30 253.91,209.32 253.74,209.34 253.57,209.36 253.40,209.37 253.23,209.37 253.05,209.38 220.19,209.38 253.01,209.38 220.06,209.37 219.89,209.37 219.72,209.36 219.55,209.35 219.38,209.33 219.21,209.31 219.04,209.29 218.87,209.26 218.70,209.23 218.54,209.20 218.37,209.16 218.21,209.12 218.05,209.08 217.89,209.03 217.74,208.98 217.58,208.92 217.43,208.86 217.29,208.80 217.14,208.74 217.00,208.67 216.86,208.60 216.73,208.53 216.59,208.45 216.47,208.37 216.34,208.29 216.22,208.20 216.10,208.12 215.99,208.03 215.88,207.93 215.78,207.84 215.68,207.74 215.58,207.64 215.49,207.54 215.41,207.44 215.33,207.34 215.25,207.23 215.18,207.12 215.11,207.01 215.05,206.90 215.00,206.79 214.94,206.68 214.90,206.56 214.86,206.45 214.82,206.33 214.79,206.22 214.77,206.10 214.75,205.98 214.74,205.86 214.73,205.75 214.72,205.63 214.72,205.63 214.72,189.14 214.72,189.14 214.73,189.02 214.74,188.90 214.75,188.78 214.77,188.66 214.79,188.55 214.82,188.43 214.86,188.31 214.90,188.20 214.94,188.09 215.00,187.97 215.05,187.86 215.11,187.75 215.18,187.64 215.25,187.53 215.33,187.43 215.41,187.32 215.49,187.22 215.58,187.12 215.68,187.02 215.78,186.92 215.88,186.83 215.99,186.74 216.10,186.65 216.22,186.56 216.34,186.48 216.47,186.39 216.59,186.31 216.73,186.24 216.86,186.16 217.00,186.09 217.14,186.03 217.29,185.96 217.43,185.90 217.58,185.84 217.74,185.79 217.89,185.74 218.05,185.69 218.21,185.64 218.37,185.60 218.54,185.56 218.70,185.53 218.87,185.50 219.04,185.47 219.21,185.45 219.38,185.43 219.55,185.41 219.72,185.40 219.89,185.39 220.06,185.39 220.19,185.39 253.01,185.39 253.05,185.39 253.23,185.39 253.40,185.40 253.57,185.41 253.74,185.42 253.91,185.44 254.08,185.46 254.25,185.49 254.42,185.51 254.58,185.55 254.75,185.58 254.91,185.62 255.07,185.66 255.23,185.71 255.39,185.76 255.54,185.81 255.69,185.87 255.84,185.93 255.99,185.99 256.13,186.06 256.27,186.13 256.41,186.20 256.54,186.28 256.67,186.35 256.80,186.43 256.92,186.52 257.04,186.60 257.16,186.69 257.27,186.78 257.37,186.88 257.47,186.97 257.57,187.07 257.67,187.17 257.75,187.27 257.84,187.37 257.92,187.48 257.99,187.59 258.06,187.69 258.12,187.80 258.18,187.92 258.23,188.03 258.28,188.14 258.33,188.26 258.36,188.37 258.40,188.49 258.42,188.61 258.45,188.72 258.46,188.84 258.47,188.96 258.48,189.08 ' style='stroke-width: 1.07; stroke: #FF0000; stroke-linecap: butt; fill: #FF0000;' />
<polygon points='258.48,165.15 258.48,181.64 258.48,181.70 258.47,181.82 258.46,181.94 258.45,182.05 258.42,182.17 258.40,182.29 258.36,182.40 258.33,182.52 258.28,182.63 258.23,182.75 258.18,182.86 258.12,182.97 258.06,183.08 257.99,183.19 257.92,183.30 257.84,183.40 257.75,183.51 257.67,183.61 257.57,183.71 257.47,183.80 257.37,183.90 257.27,183.99 257.16,184.08 257.04,184.17 256.92,184.26 256.80,184.34 256.67,184.42 256.54,184.50 256.41,184.58 256.27,184.65 256.13,184.72 255.99,184.78 255.84,184.85 255.69,184.91 255.54,184.96 255.39,185.01 255.23,185.06 255.07,185.11 254.91,185.15 254.75,185.19 254.58,185.23 254.42,185.26 254.25,185.29 254.08,185.32 253.91,185.34 253.74,185.35 253.57,185.37 253.40,185.38 253.23,185.38 253.05,185.39 220.19,185.39 253.01,185.39 220.06,185.39 219.89,185.38 219.72,185.37 219.55,185.36 219.38,185.35 219.21,185.33 219.04,185.30 218.87,185.28 218.70,185.25 218.54,185.21 218.37,185.17 218.21,185.13 218.05,185.09 217.89,185.04 217.74,184.99 217.58,184.93 217.43,184.88 217.29,184.81 217.14,184.75 217.00,184.68 216.86,184.61 216.73,184.54 216.59,184.46 216.47,184.38 216.34,184.30 216.22,184.22 216.10,184.13 215.99,184.04 215.88,183.95 215.78,183.85 215.68,183.76 215.58,183.66 215.49,183.56 215.41,183.45 215.33,183.35 215.25,183.24 215.18,183.14 215.11,183.03 215.05,182.92 215.00,182.80 214.94,182.69 214.90,182.58 214.86,182.46 214.82,182.35 214.79,182.23 214.77,182.11 214.75,181.99 214.74,181.88 214.73,181.76 214.72,181.64 214.72,181.64 214.72,165.15 214.72,165.15 214.73,165.03 214.74,164.91 214.75,164.79 214.77,164.68 214.79,164.56 214.82,164.44 214.86,164.33 214.90,164.21 214.94,164.10 215.00,163.98 215.05,163.87 215.11,163.76 215.18,163.65 215.25,163.54 215.33,163.44 215.41,163.33 215.49,163.23 215.58,163.13 215.68,163.03 215.78,162.94 215.88,162.84 215.99,162.75 216.10,162.66 216.22,162.57 216.34,162.49 216.47,162.41 216.59,162.33 216.73,162.25 216.86,162.18 217.00,162.11 217.14,162.04 217.29,161.97 217.43,161.91 217.58,161.85 217.74,161.80 217.89,161.75 218.05,161.70 218.21,161.66 218.37,161.61 218.54,161.58 218.70,161.54 218.87,161.51 219.04,161.48 219.21,161.46 219.38,161.44 219.55,161.43 219.72,161.41 219.89,161.41 220.06,161.40 220.19,161.40 253.01,161.40 253.05,161.40 253.23,161.40 253.40,161.41 253.57,161.42 253.74,161.43 253.91,161.45 254.08,161.47 254.25,161.50 254.42,161.53 254.58,161.56 254.75,161.59 254.91,161.63 255.07,161.68 255.23,161.72 255.39,161.77 255.54,161.83 255.69,161.88 255.84,161.94 255.99,162.01 256.13,162.07 256.27,162.14 256.41,162.21 256.54,162.29 256.67,162.37 256.80,162.45 256.92,162.53 257.04,162.62 257.16,162.70 257.27,162.79 257.37,162.89 257.47,162.98 257.57,163.08 257.67,163.18 257.75,163.28 257.84,163.39 257.92,163.49 257.99,163.60 258.06,163.71 258.12,163.82 258.18,163.93 258.23,164.04 258.28,164.15 258.33,164.27 258.36,164.38 258.40,164.50 258.42,164.62 258.45,164.73 258.46,164.85 258.47,164.97 258.48,165.09 ' style='stroke-width: 1.07; stroke: #1E90FF; stroke-linecap: butt; fill: #1E90FF;' />
<polygon points='83.46,141.16 83.46,157.65 83.46,157.71 83.46,157.83 83.44,157.95 83.43,158.07 83.41,158.18 83.38,158.30 83.35,158.42 83.31,158.53 83.27,158.65 83.22,158.76 83.16,158.87 83.11,158.98 83.04,159.09 82.97,159.20 82.90,159.31 82.82,159.41 82.74,159.52 82.65,159.62 82.55,159.72 82.46,159.82 82.36,159.91 82.25,160.01 82.14,160.10 82.02,160.18 81.91,160.27 81.78,160.35 81.66,160.43 81.53,160.51 81.39,160.59 81.26,160.66 81.12,160.73 80.97,160.79 80.83,160.86 80.68,160.92 80.53,160.97 80.37,161.03 80.21,161.08 80.06,161.12 79.89,161.17 79.73,161.21 79.57,161.24 79.40,161.27 79.23,161.30 79.06,161.33 78.89,161.35 78.72,161.37 78.55,161.38 78.38,161.39 78.21,161.40 78.04,161.40 45.18,161.40 77.99,161.40 45.05,161.40 44.87,161.39 44.70,161.39 44.53,161.37 44.36,161.36 44.19,161.34 44.02,161.32 43.85,161.29 43.68,161.26 43.52,161.22 43.36,161.19 43.19,161.15 43.03,161.10 42.88,161.05 42.72,161.00 42.57,160.95 42.42,160.89 42.27,160.83 42.12,160.76 41.98,160.69 41.84,160.62 41.71,160.55 41.58,160.47 41.45,160.39 41.32,160.31 41.20,160.23 41.09,160.14 40.97,160.05 40.87,159.96 40.76,159.86 40.66,159.77 40.57,159.67 40.48,159.57 40.39,159.47 40.31,159.36 40.23,159.26 40.16,159.15 40.10,159.04 40.03,158.93 39.98,158.82 39.93,158.70 39.88,158.59 39.84,158.47 39.81,158.36 39.78,158.24 39.75,158.12 39.73,158.01 39.72,157.89 39.71,157.77 39.71,157.65 39.71,157.65 39.71,141.16 39.71,141.16 39.71,141.04 39.72,140.92 39.73,140.81 39.75,140.69 39.78,140.57 39.81,140.45 39.84,140.34 39.88,140.22 39.93,140.11 39.98,140.00 40.03,139.88 40.10,139.77 40.16,139.66 40.23,139.56 40.31,139.45 40.39,139.35 40.48,139.24 40.57,139.14 40.66,139.04 40.76,138.95 40.87,138.85 40.97,138.76 41.09,138.67 41.20,138.58 41.32,138.50 41.45,138.42 41.58,138.34 41.71,138.26 41.84,138.19 41.98,138.12 42.12,138.05 42.27,137.99 42.42,137.92 42.57,137.87 42.72,137.81 42.88,137.76 43.03,137.71 43.19,137.67 43.36,137.63 43.52,137.59 43.68,137.55 43.85,137.52 44.02,137.50 44.19,137.47 44.36,137.45 44.53,137.44 44.70,137.43 44.87,137.42 45.05,137.41 45.18,137.41 77.99,137.41 78.04,137.41 78.21,137.42 78.38,137.42 78.55,137.43 78.72,137.45 78.89,137.46 79.06,137.48 79.23,137.51 79.40,137.54 79.57,137.57 79.73,137.61 79.89,137.65 80.06,137.69 80.21,137.74 80.37,137.79 80.53,137.84 80.68,137.89 80.83,137.95 80.97,138.02 81.12,138.08 81.26,138.15 81.39,138.22 81.53,138.30 81.66,138.38 81.78,138.46 81.91,138.54 82.02,138.63 82.14,138.72 82.25,138.81 82.36,138.90 82.46,139.00 82.55,139.09 82.65,139.19 82.74,139.29 82.82,139.40 82.90,139.50 82.97,139.61 83.04,139.72 83.11,139.83 83.16,139.94 83.22,140.05 83.27,140.17 83.31,140.28 83.35,140.40 83.38,140.51 83.41,140.63 83.43,140.75 83.44,140.86 83.46,140.98 83.46,141.10 ' style='stroke-width: 1.07; stroke: #66CD00; stroke-linecap: butt; fill: #66CD00;' />
<polygon points='170.97,141.16 170.97,157.65 170.97,157.71 170.96,157.83 170.95,157.95 170.94,158.07 170.92,158.18 170.89,158.30 170.86,158.42 170.82,158.53 170.77,158.65 170.73,158.76 170.67,158.87 170.61,158.98 170.55,159.09 170.48,159.20 170.41,159.31 170.33,159.41 170.24,159.52 170.16,159.62 170.06,159.72 169.97,159.82 169.86,159.91 169.76,160.01 169.65,160.10 169.53,160.18 169.41,160.27 169.29,160.35 169.17,160.43 169.03,160.51 168.90,160.59 168.76,160.66 168.62,160.73 168.48,160.79 168.33,160.86 168.19,160.92 168.03,160.97 167.88,161.03 167.72,161.08 167.56,161.12 167.40,161.17 167.24,161.21 167.08,161.24 166.91,161.27 166.74,161.30 166.57,161.33 166.40,161.35 166.23,161.37 166.06,161.38 165.89,161.39 165.72,161.40 165.54,161.40 132.69,161.40 165.50,161.40 132.56,161.40 132.38,161.39 132.21,161.39 132.04,161.37 131.87,161.36 131.70,161.34 131.53,161.32 131.36,161.29 131.19,161.26 131.03,161.22 130.86,161.19 130.70,161.15 130.54,161.10 130.38,161.05 130.23,161.00 130.08,160.95 129.93,160.89 129.78,160.83 129.63,160.76 129.49,160.69 129.35,160.62 129.22,160.55 129.09,160.47 128.96,160.39 128.83,160.31 128.71,160.23 128.60,160.14 128.48,160.05 128.37,159.96 128.27,159.86 128.17,159.77 128.08,159.67 127.99,159.57 127.90,159.47 127.82,159.36 127.74,159.26 127.67,159.15 127.60,159.04 127.54,158.93 127.49,158.82 127.44,158.70 127.39,158.59 127.35,158.47 127.31,158.36 127.28,158.24 127.26,158.12 127.24,158.01 127.23,157.89 127.22,157.77 127.22,157.65 127.22,157.65 127.22,141.16 127.22,141.16 127.22,141.04 127.23,140.92 127.24,140.81 127.26,140.69 127.28,140.57 127.31,140.45 127.35,140.34 127.39,140.22 127.44,140.11 127.49,140.00 127.54,139.88 127.60,139.77 127.67,139.66 127.74,139.56 127.82,139.45 127.90,139.35 127.99,139.24 128.08,139.14 128.17,139.04 128.27,138.95 128.37,138.85 128.48,138.76 128.60,138.67 128.71,138.58 128.83,138.50 128.96,138.42 129.09,138.34 129.22,138.26 129.35,138.19 129.49,138.12 129.63,138.05 129.78,137.99 129.93,137.92 130.08,137.87 130.23,137.81 130.38,137.76 130.54,137.71 130.70,137.67 130.86,137.63 131.03,137.59 131.19,137.55 131.36,137.52 131.53,137.50 131.70,137.47 131.87,137.45 132.04,137.44 132.21,137.43 132.38,137.42 132.56,137.41 132.69,137.41 165.50,137.41 165.54,137.41 165.72,137.42 165.89,137.42 166.06,137.43 166.23,137.45 166.40,137.46 166.57,137.48 166.74,137.51 166.91,137.54 167.08,137.57 167.24,137.61 167.40,137.65 167.56,137.69 167.72,137.74 167.88,137.79 168.03,137.84 168.19,137.89 168.33,137.95 168.48,138.02 168.62,138.08 168.76,138.15 168.90,138.22 169.03,138.30 169.17,138.38 169.29,138.46 169.41,138.54 169.53,138.63 169.65,138.72 169.76,138.81 169.86,138.90 169.97,139.00 170.06,139.09 170.16,139.19 170.24,139.29 170.33,139.40 170.41,139.50 170.48,139.61 170.55,139.72 170.61,139.83 170.67,139.94 170.73,140.05 170.77,140.17 170.82,140.28 170.86,140.40 170.89,140.51 170.92,140.63 170.94,140.75 170.95,140.86 170.96,140.98 170.97,141.10 ' style='stroke-width: 1.07; stroke: #1E90FF; stroke-linecap: butt; fill: #1E90FF;' />
<polygon points='345.99,141.16 345.99,157.65 345.99,157.71 345.98,157.83 345.97,157.95 345.95,158.07 345.93,158.18 345.91,158.30 345.87,158.42 345.84,158.53 345.79,158.65 345.74,158.76 345.69,158.87 345.63,158.98 345.57,159.09 345.50,159.20 345.42,159.31 345.35,159.41 345.26,159.52 345.17,159.62 345.08,159.72 344.98,159.82 344.88,159.91 344.78,160.01 344.66,160.10 344.55,160.18 344.43,160.27 344.31,160.35 344.18,160.43 344.05,160.51 343.92,160.59 343.78,160.66 343.64,160.73 343.50,160.79 343.35,160.86 343.20,160.92 343.05,160.97 342.90,161.03 342.74,161.08 342.58,161.12 342.42,161.17 342.26,161.21 342.09,161.24 341.93,161.27 341.76,161.30 341.59,161.33 341.42,161.35 341.25,161.37 341.08,161.38 340.91,161.39 340.73,161.40 340.56,161.40 307.70,161.40 340.52,161.40 307.57,161.40 307.40,161.39 307.23,161.39 307.06,161.37 306.89,161.36 306.72,161.34 306.55,161.32 306.38,161.29 306.21,161.26 306.05,161.22 305.88,161.19 305.72,161.15 305.56,161.10 305.40,161.05 305.25,161.00 305.09,160.95 304.94,160.89 304.80,160.83 304.65,160.76 304.51,160.69 304.37,160.62 304.24,160.55 304.10,160.47 303.98,160.39 303.85,160.31 303.73,160.23 303.61,160.14 303.50,160.05 303.39,159.96 303.29,159.86 303.19,159.77 303.09,159.67 303.00,159.57 302.92,159.47 302.84,159.36 302.76,159.26 302.69,159.15 302.62,159.04 302.56,158.93 302.50,158.82 302.45,158.70 302.41,158.59 302.37,158.47 302.33,158.36 302.30,158.24 302.28,158.12 302.26,158.01 302.24,157.89 302.24,157.77 302.23,157.65 302.23,157.65 302.23,141.16 302.23,141.16 302.24,141.04 302.24,140.92 302.26,140.81 302.28,140.69 302.30,140.57 302.33,140.45 302.37,140.34 302.41,140.22 302.45,140.11 302.50,140.00 302.56,139.88 302.62,139.77 302.69,139.66 302.76,139.56 302.84,139.45 302.92,139.35 303.00,139.24 303.09,139.14 303.19,139.04 303.29,138.95 303.39,138.85 303.50,138.76 303.61,138.67 303.73,138.58 303.85,138.50 303.98,138.42 304.10,138.34 304.24,138.26 304.37,138.19 304.51,138.12 304.65,138.05 304.80,137.99 304.94,137.92 305.09,137.87 305.25,137.81 305.40,137.76 305.56,137.71 305.72,137.67 305.88,137.63 306.05,137.59 306.21,137.55 306.38,137.52 306.55,137.50 306.72,137.47 306.89,137.45 307.06,137.44 307.23,137.43 307.40,137.42 307.57,137.41 307.70,137.41 340.52,137.41 340.56,137.41 340.73,137.42 340.91,137.42 341.08,137.43 341.25,137.45 341.42,137.46 341.59,137.48 341.76,137.51 341.93,137.54 342.09,137.57 342.26,137.61 342.42,137.65 342.58,137.69 342.74,137.74 342.90,137.79 343.05,137.84 343.20,137.89 343.35,137.95 343.50,138.02 343.64,138.08 343.78,138.15 343.92,138.22 344.05,138.30 344.18,138.38 344.31,138.46 344.43,138.54 344.55,138.63 344.66,138.72 344.78,138.81 344.88,138.90 344.98,139.00 345.08,139.09 345.17,139.19 345.26,139.29 345.35,139.40 345.42,139.50 345.50,139.61 345.57,139.72 345.63,139.83 345.69,139.94 345.74,140.05 345.79,140.17 345.84,140.28 345.87,140.40 345.91,140.51 345.93,140.63 345.95,140.75 345.97,140.86 345.98,140.98 345.99,141.10 ' style='stroke-width: 1.07; stroke: #FFB90F; stroke-linecap: butt; fill: #FFB90F;' />
<polygon points='345.99,213.12 345.99,229.62 345.99,229.67 345.98,229.79 345.97,229.91 345.95,230.03 345.93,230.15 345.91,230.26 345.87,230.38 345.84,230.49 345.79,230.61 345.74,230.72 345.69,230.84 345.63,230.95 345.57,231.06 345.50,231.16 345.42,231.27 345.35,231.38 345.26,231.48 345.17,231.58 345.08,231.68 344.98,231.78 344.88,231.88 344.78,231.97 344.66,232.06 344.55,232.15 344.43,232.23 344.31,232.32 344.18,232.40 344.05,232.48 343.92,232.55 343.78,232.62 343.64,232.69 343.50,232.76 343.35,232.82 343.20,232.88 343.05,232.94 342.90,232.99 342.74,233.04 342.58,233.09 342.42,233.13 342.26,233.17 342.09,233.20 341.93,233.24 341.76,233.27 341.59,233.29 341.42,233.31 341.25,233.33 341.08,233.34 340.91,233.35 340.73,233.36 340.56,233.36 307.70,233.36 340.52,233.36 307.57,233.36 307.40,233.36 307.23,233.35 307.06,233.34 306.89,233.32 306.72,233.30 306.55,233.28 306.38,233.25 306.21,233.22 306.05,233.19 305.88,233.15 305.72,233.11 305.56,233.06 305.40,233.02 305.25,232.96 305.09,232.91 304.94,232.85 304.80,232.79 304.65,232.73 304.51,232.66 304.37,232.59 304.24,232.51 304.10,232.44 303.98,232.36 303.85,232.28 303.73,232.19 303.61,232.10 303.50,232.01 303.39,231.92 303.29,231.83 303.19,231.73 303.09,231.63 303.00,231.53 302.92,231.43 302.84,231.32 302.76,231.22 302.69,231.11 302.62,231.00 302.56,230.89 302.50,230.78 302.45,230.67 302.41,230.55 302.37,230.44 302.33,230.32 302.30,230.20 302.28,230.09 302.26,229.97 302.24,229.85 302.24,229.73 302.23,229.62 302.23,229.62 302.23,213.12 302.23,213.12 302.24,213.01 302.24,212.89 302.26,212.77 302.28,212.65 302.30,212.53 302.33,212.42 302.37,212.30 302.41,212.19 302.45,212.07 302.50,211.96 302.56,211.85 302.62,211.74 302.69,211.63 302.76,211.52 302.84,211.41 302.92,211.31 303.00,211.21 303.09,211.11 303.19,211.01 303.29,210.91 303.39,210.82 303.50,210.72 303.61,210.63 303.73,210.55 303.85,210.46 303.98,210.38 304.10,210.30 304.24,210.23 304.37,210.15 304.51,210.08 304.65,210.01 304.80,209.95 304.94,209.89 305.09,209.83 305.25,209.77 305.40,209.72 305.56,209.68 305.72,209.63 305.88,209.59 306.05,209.55 306.21,209.52 306.38,209.49 306.55,209.46 306.72,209.44 306.89,209.42 307.06,209.40 307.23,209.39 307.40,209.38 307.57,209.38 307.70,209.38 340.52,209.38 340.56,209.38 340.73,209.38 340.91,209.39 341.08,209.40 341.25,209.41 341.42,209.43 341.59,209.45 341.76,209.47 341.93,209.50 342.09,209.53 342.26,209.57 342.42,209.61 342.58,209.65 342.74,209.70 342.90,209.75 343.05,209.80 343.20,209.86 343.35,209.92 343.50,209.98 343.64,210.05 343.78,210.12 343.92,210.19 344.05,210.26 344.18,210.34 344.31,210.42 344.43,210.50 344.55,210.59 344.66,210.68 344.78,210.77 344.88,210.86 344.98,210.96 345.08,211.06 345.17,211.16 345.26,211.26 345.35,211.36 345.42,211.47 345.50,211.57 345.57,211.68 345.63,211.79 345.69,211.90 345.74,212.02 345.79,212.13 345.84,212.24 345.87,212.36 345.91,212.48 345.93,212.59 345.95,212.71 345.97,212.83 345.98,212.95 345.99,213.06 ' style='stroke-width: 1.07; stroke: #FF0000; stroke-linecap: butt; fill: #FF0000;' />
<line x1='24.39' y1='257.35' x2='24.39' y2='17.47' style='stroke-width: 1.07; stroke-linecap: butt;' />
</g>
<g clip-path='url(#cpMC4wMHw0MzIuMDB8MC4wMHwyODguMDA=)'>
<text x='19.46' y='260.56' text-anchor='end' style='font-size: 8.80px;fill: #4D4D4D; font-family: "Arial";' textLength='13.98px' lengthAdjust='spacingAndGlyphs'>0.0</text>
<text x='19.46' y='236.57' text-anchor='end' style='font-size: 8.80px;fill: #4D4D4D; font-family: "Arial";' textLength='13.98px' lengthAdjust='spacingAndGlyphs'>0.5</text>
<text x='19.46' y='212.58' text-anchor='end' style='font-size: 8.80px;fill: #4D4D4D; font-family: "Arial";' textLength='13.98px' lengthAdjust='spacingAndGlyphs'>1.0</text>
<text x='19.46' y='188.60' text-anchor='end' style='font-size: 8.80px;fill: #4D4D4D; font-family: "Arial";' textLength='13.98px' lengthAdjust='spacingAndGlyphs'>1.5</text>
<text x='19.46' y='164.61' text-anchor='end' style='font-size: 8.80px;fill: #4D4D4D; font-family: "Arial";' textLength='13.98px' lengthAdjust='spacingAndGlyphs'>2.0</text>
<text x='19.46' y='140.62' text-anchor='end' style='font-size: 8.80px;fill: #4D4D4D; font-family: "Arial";' textLength='13.98px' lengthAdjust='spacingAndGlyphs'>2.5</text>
<text x='19.46' y='116.63' text-anchor='end' style='font-size: 8.80px;fill: #4D4D4D; font-family: "Arial";' textLength='13.98px' lengthAdjust='spacingAndGlyphs'>3.0</text>
<text x='19.46' y='92.64' text-anchor='end' style='font-size: 8.80px;fill: #4D4D4D; font-family: "Arial";' textLength='13.98px' lengthAdjust='spacingAndGlyphs'>3.5</text>
<text x='19.46' y='68.66' text-anchor='end' style='font-size: 8.80px;fill: #4D4D4D; font-family: "Arial";' textLength='13.98px' lengthAdjust='spacingAndGlyphs'>4.0</text>
<text x='19.46' y='44.67' text-anchor='end' style='font-size: 8.80px;fill: #4D4D4D; font-family: "Arial";' textLength='13.98px' lengthAdjust='spacingAndGlyphs'>4.5</text>
<text x='19.46' y='20.68' text-anchor='end' style='font-size: 8.80px;fill: #4D4D4D; font-family: "Arial";' textLength='13.98px' lengthAdjust='spacingAndGlyphs'>5.0</text>
<polyline points='21.65,257.35 24.39,257.35 ' style='stroke-width: 1.07; stroke: #333333; stroke-linecap: butt;' />
<polyline points='21.65,233.36 24.39,233.36 ' style='stroke-width: 1.07; stroke: #333333; stroke-linecap: butt;' />
<polyline points='21.65,209.38 24.39,209.38 ' style='stroke-width: 1.07; stroke: #333333; stroke-linecap: butt;' />
<polyline points='21.65,185.39 24.39,185.39 ' style='stroke-width: 1.07; stroke: #333333; stroke-linecap: butt;' />
<polyline points='21.65,161.40 24.39,161.40 ' style='stroke-width: 1.07; stroke: #333333; stroke-linecap: butt;' />
<polyline points='21.65,137.41 24.39,137.41 ' style='stroke-width: 1.07; stroke: #333333; stroke-linecap: butt;' />
<polyline points='21.65,113.42 24.39,113.42 ' style='stroke-width: 1.07; stroke: #333333; stroke-linecap: butt;' />
<polyline points='21.65,89.44 24.39,89.44 ' style='stroke-width: 1.07; stroke: #333333; stroke-linecap: butt;' />
<polyline points='21.65,65.45 24.39,65.45 ' style='stroke-width: 1.07; stroke: #333333; stroke-linecap: butt;' />
<polyline points='21.65,41.46 24.39,41.46 ' style='stroke-width: 1.07; stroke: #333333; stroke-linecap: butt;' />
<polyline points='21.65,17.47 24.39,17.47 ' style='stroke-width: 1.07; stroke: #333333; stroke-linecap: butt;' />
<text x='61.58' y='280.69' text-anchor='middle' style='font-size: 8.80px;fill: #4D4D4D; font-family: "Arial";' textLength='5.59px' lengthAdjust='spacingAndGlyphs'>1</text>
<text x='149.09' y='280.69' text-anchor='middle' style='font-size: 8.80px;fill: #4D4D4D; font-family: "Arial";' textLength='5.59px' lengthAdjust='spacingAndGlyphs'>2</text>
<text x='236.60' y='280.69' text-anchor='middle' style='font-size: 8.80px;fill: #4D4D4D; font-family: "Arial";' textLength='5.59px' lengthAdjust='spacingAndGlyphs'>3</text>
<text x='324.11' y='280.69' text-anchor='middle' style='font-size: 8.80px;fill: #4D4D4D; font-family: "Arial";' textLength='5.59px' lengthAdjust='spacingAndGlyphs'>4</text>
<rect x='372.26' y='97.37' width='54.26' height='80.08' style='stroke-width: 1.07; stroke: none; fill: #FFFFFF;' />
<rect x='377.74' y='102.85' width='17.28' height='17.28' style='stroke-width: 1.07; stroke: none; fill: #FFFFFF;' />
<rect x='378.45' y='103.56' width='15.86' height='15.86' style='stroke-width: 1.07; stroke: #66CD00; stroke-linecap: butt; stroke-linejoin: miter; fill: #66CD00;' />
<rect x='377.74' y='120.13' width='17.28' height='17.28' style='stroke-width: 1.07; stroke: none; fill: #FFFFFF;' />
<rect x='378.45' y='120.84' width='15.86' height='15.86' style='stroke-width: 1.07; stroke: #FF0000; stroke-linecap: butt; stroke-linejoin: miter; fill: #FF0000;' />
<rect x='377.74' y='137.41' width='17.28' height='17.28' style='stroke-width: 1.07; stroke: none; fill: #FFFFFF;' />
<rect x='378.45' y='138.12' width='15.86' height='15.86' style='stroke-width: 1.07; stroke: #FFB90F; stroke-linecap: butt; stroke-linejoin: miter; fill: #FFB90F;' />
<rect x='377.74' y='154.69' width='17.28' height='17.28' style='stroke-width: 1.07; stroke: none; fill: #FFFFFF;' />
<rect x='378.45' y='155.40' width='15.86' height='15.86' style='stroke-width: 1.07; stroke: #1E90FF; stroke-linecap: butt; stroke-linejoin: miter; fill: #1E90FF;' />
<text x='400.50' y='114.70' style='font-size: 8.80px; font-family: "Arial";' textLength='16.78px' lengthAdjust='spacingAndGlyphs'>45S</text>
<text x='400.50' y='131.98' style='font-size: 8.80px; font-family: "Arial";' textLength='11.18px' lengthAdjust='spacingAndGlyphs'>5S</text>
<text x='400.50' y='149.26' style='font-size: 8.80px; font-family: "Arial";' textLength='19.75px' lengthAdjust='spacingAndGlyphs'>CMA</text>
<text x='400.50' y='166.54' style='font-size: 8.80px; font-family: "Arial";' textLength='20.54px' lengthAdjust='spacingAndGlyphs'>DAPI</text>
</g>
</svg>
